^C:\USERS\JAVAJUMPER\SOURCE\REPOS\LAB11\LAB11\LAB11.C
C:\USERS\JAVAJUMPER\SOURCE\REPOS\LAB11\LAB11\X64\DEBUG\VC143.PDB
C:\USERS\JAVAJUMPER\SOURCE\REPOS\LAB11\LAB11\X64\DEBUG\VC143.IDB
C:\USERS\JAVAJUMPER\SOURCE\REPOS\LAB11\LAB11\X64\DEBUG\LAB11.OBJ
