^C:\USERS\JAVAJUMPER\SOURCE\REPOS\LAB11\LAB11\X64\DEBUG\LAB11.OBJ
C:\USERS\JAVAJUMPER\SOURCE\REPOS\LAB11\X64\DEBUG\TASK 1.EXE
C:\USERS\JAVAJUMPER\SOURCE\REPOS\LAB11\LAB11\X64\DEBUG\TASK 1.ILK
C:\USERS\JAVAJUMPER\SOURCE\REPOS\LAB11\X64\DEBUG\TASK 1.PDB
