^C:\USERS\JAVAJUMPER\SOURCE\REPOS\LAB11\LAB11\X64\DEBUG\LAB11.OBJ
C:\USERS\JAVAJUMPER\SOURCE\REPOS\LAB11\X64\DEBUG\LAB11.EXE
C:\USERS\JAVAJUMPER\SOURCE\REPOS\LAB11\LAB11\X64\DEBUG\LAB11.ILK
C:\USERS\JAVAJUMPER\SOURCE\REPOS\LAB11\X64\DEBUG\LAB11.PDB
