^C:\USERS\JAVAJUMPER\SOURCE\REPOS\LAB11\TASK4\TASK4.CPP
C:\USERS\JAVAJUMPER\SOURCE\REPOS\LAB11\TASK4\X64\DEBUG\VC143.PDB
C:\USERS\JAVAJUMPER\SOURCE\REPOS\LAB11\TASK4\X64\DEBUG\VC143.IDB
C:\USERS\JAVAJUMPER\SOURCE\REPOS\LAB11\TASK4\X64\DEBUG\TASK4.OBJ
