^C:\USERS\JAVAJUMPER\SOURCE\REPOS\LAB11\TASK4\X64\DEBUG\TASK4.OBJ
C:\USERS\JAVAJUMPER\SOURCE\REPOS\LAB11\X64\DEBUG\TASK4.EXE
C:\USERS\JAVAJUMPER\SOURCE\REPOS\LAB11\TASK4\X64\DEBUG\TASK4.ILK
C:\USERS\JAVAJUMPER\SOURCE\REPOS\LAB11\X64\DEBUG\TASK4.PDB
