^C:\USERS\JAVAJUMPER\SOURCE\REPOS\LAB11\TASK 2\TASK 2.C
C:\USERS\JAVAJUMPER\SOURCE\REPOS\LAB11\TASK 2\X64\DEBUG\VC143.PDB
C:\USERS\JAVAJUMPER\SOURCE\REPOS\LAB11\TASK 2\X64\DEBUG\VC143.IDB
C:\USERS\JAVAJUMPER\SOURCE\REPOS\LAB11\TASK 2\X64\DEBUG\TASK 2.OBJ
